VHDL/simulation/qsim/ParkingIndicatorV0.msim.vcd
$comment
	File created using the following command:
		vcd file ParkingIndicatorV0.msim.vcd -direction
$end
$date
	Sat Jun 05 15:12:02 2021
$end
$version
	ModelSim Version 2020.1
$end
$timescale
	1ps
$end

$scope module parkingindicatorv0_vhd_vec_tst $end
$var wire 1 ! Green $end
$var wire 1 " Red $end
$var wire 1 # Segments [6] $end
$var wire 1 $ Segments [5] $end
$var wire 1 % Segments [4] $end
$var wire 1 & Segments [3] $end
$var wire 1 ' Segments [2] $end
$var wire 1 ( Segments [1] $end
$var wire 1 ) Segments [0] $end
$var wire 1 * Sw [5] $end
$var wire 1 + Sw [4] $end
$var wire 1 , Sw [3] $end
$var wire 1 - Sw [2] $end
$var wire 1 . Sw [1] $end
$var wire 1 / Sw [0] $end

$scope module i1 $end
$var wire 1 0 gnd $end
$var wire 1 1 vcc $end
$var wire 1 2 unknown $end
$var wire 1 3 devoe $end
$var wire 1 4 devclrn $end
$var wire 1 5 devpor $end
$var wire 1 6 ww_devoe $end
$var wire 1 7 ww_devclrn $end
$var wire 1 8 ww_devpor $end
$var wire 1 9 ww_Sw [5] $end
$var wire 1 : ww_Sw [4] $end
$var wire 1 ; ww_Sw [3] $end
$var wire 1 < ww_Sw [2] $end
$var wire 1 = ww_Sw [1] $end
$var wire 1 > ww_Sw [0] $end
$var wire 1 ? ww_Red $end
$var wire 1 @ ww_Green $end
$var wire 1 A ww_Segments [6] $end
$var wire 1 B ww_Segments [5] $end
$var wire 1 C ww_Segments [4] $end
$var wire 1 D ww_Segments [3] $end
$var wire 1 E ww_Segments [2] $end
$var wire 1 F ww_Segments [1] $end
$var wire 1 G ww_Segments [0] $end
$var wire 1 H \~QUARTUS_CREATED_GND~I_combout\ $end
$var wire 1 I \Sw[2]~input_o\ $end
$var wire 1 J \Sw[0]~input_o\ $end
$var wire 1 K \Sw[4]~input_o\ $end
$var wire 1 L \Sw[1]~input_o\ $end
$var wire 1 M \Sw[3]~input_o\ $end
$var wire 1 N \Sw[5]~input_o\ $end
$var wire 1 O \Red~0_combout\ $end
$var wire 1 P \SevenSegments1|Mux6~0_combout\ $end
$var wire 1 Q \SevenSegments1|Mux5~0_combout\ $end
$var wire 1 R \SevenSegments1|Mux4~0_combout\ $end
$var wire 1 S \SevenSegments1|Mux2~0_combout\ $end
$var wire 1 T \SevenSegments1|Mux1~0_combout\ $end
$var wire 1 U \SevenSegments1|Mux0~0_combout\ $end
$var wire 1 V \ALT_INV_Sw[3]~input_o\ $end
$var wire 1 W \ALT_INV_Sw[2]~input_o\ $end
$var wire 1 X \ALT_INV_Sw[1]~input_o\ $end
$var wire 1 Y \ALT_INV_Sw[0]~input_o\ $end
$var wire 1 Z \ALT_INV_Sw[5]~input_o\ $end
$var wire 1 [ \ALT_INV_Sw[4]~input_o\ $end
$var wire 1 \ \SevenSegments1|ALT_INV_Mux1~0_combout\ $end
$var wire 1 ] \SevenSegments1|ALT_INV_Mux2~0_combout\ $end
$var wire 1 ^ \SevenSegments1|ALT_INV_Mux4~0_combout\ $end
$var wire 1 _ \ALT_INV_Red~0_combout\ $end
$upscope $end
$upscope $end
$enddefinitions $end
#0
$dumpvars
1!
0"
00
11
x2
13
14
15
16
17
18
0?
1@
xH
0I
0J
0K
0L
0M
0N
0O
1P
1Q
0R
0S
0T
0U
1V
1W
1X
1Y
1Z
1[
1\
1]
1^
1_
0*
0+
0,
0-
0.
0/
0#
1$
1%
1&
1'
1(
1)
09
0:
0;
0<
0=
0>
0A
1B
1C
1D
1E
1F
1G
$end
#20000
1*
1+
1,
1-
1.
1/
1>
1=
1<
1;
1:
19
1N
1K
1M
1I
1L
1J
0Y
0X
0W
0V
0[
0Z
1O
0Q
1U
0_
1A
0F
1?
0@
0(
1#
1"
0!
#50000
0*
09
0N
1Z
0O
1S
0]
1_
0?
1@
0C
0"
1!
0%
#80000
0+
0:
0K
1[
0P
1Q
1F
0G
0D
0)
1(
0&
#130000
0,
0;
0M
1V
1P
1T
0\
1G
1D
0B
1)
1&
0$
#200000
0-
0<
0I
1W
1R
0S
1]
0^
0E
1C
0'
1%
#240000
0.
0=
0L
1X
0P
0R
1S
0U
0]
1^
0A
0G
0D
1E
0C
0)
0&
0#
1'
0%
#280000
1,
1+
1*
1;
1:
19
1N
1K
1M
0V
0[
0Z
0T
1U
1\
1A
1B
1#
1$
#310000
0/
0>
0J
1Y
1P
1T
0\
1G
1D
0B
1)
1&
0$
#420000
1-
1<
1I
0W
0P
0T
1\
0G
0D
1B
0)
0&
1$
#470000
0,
0+
0*
0;
0:
09
0N
0K
0M
1V
1[
1Z
1T
0U
0\
0A
0B
0#
0$
#590000
1+
1*
1:
19
1N
1K
0[
0Z
1P
1U
1A
1G
1D
1)
1&
1#
#670000
0-
0<
0I
1W
1R
0S
1]
0^
0E
1C
0'
1%
#750000
0+
0*
0:
09
0N
0K
1[
1Z
0R
0T
0U
1\
1^
0A
1E
1B
0#
1'
1$
